 21.38 & -16.90 & 0.00 & 0.00 & -4.48 & 0.00 & 0.00 & 0.00 & 0.00 & 0.00 & 0.00 & 0.00 & 0.00 &0.00 \\ 
 -16.90 & 33.37 & -5.05 & -5.67 & -5.75 & 0.00 & 0.00 & 0.00 & 0.00 & 0.00 & 0.00 & 0.00 & 0.00 &0.00 \\ 
 0.00 & -5.05 & 10.90 & -5.85 & 0.00 & 0.00 & 0.00 & 0.00 & 0.00 & 0.00 & 0.00 & 0.00 & 0.00 &0.00 \\ 
 0.00 & -5.67 & -5.85 & 42.01 & -23.75 & 0.00 & -4.89 & 0.00 & -1.86 & 0.00 & 0.00 & 0.00 & 0.00 &0.00 \\ 
 -4.48 & -5.75 & 0.00 & -23.75 & 38.24 & -4.26 & 0.00 & 0.00 & 0.00 & 0.00 & 0.00 & 0.00 & 0.00 &0.00 \\ 
 0.00 & 0.00 & 0.00 & 0.00 & -4.26 & 20.87 & 0.00 & 0.00 & 0.00 & 0.00 & -5.03 & -3.91 & -7.68 &0.00 \\ 
 0.00 & 0.00 & 0.00 & -4.89 & 0.00 & 0.00 & 19.66 & -5.68 & -9.09 & 0.00 & 0.00 & 0.00 & 0.00 &0.00 \\ 
 0.00 & 0.00 & 0.00 & 0.00 & 0.00 & 0.00 & -5.68 & 5.68 & 0.00 & 0.00 & 0.00 & 0.00 & 0.00 &0.00 \\ 
 0.00 & 0.00 & 0.00 & -1.86 & 0.00 & 0.00 & -9.09 & 0.00 & 26.48 & -11.83 & 0.00 & 0.00 & 0.00 &-3.70 \\ 
 0.00 & 0.00 & 0.00 & 0.00 & 0.00 & 0.00 & 0.00 & 0.00 & -11.83 & 17.04 & -5.21 & 0.00 & 0.00 &0.00 \\ 
 0.00 & 0.00 & 0.00 & 0.00 & 0.00 & -5.03 & 0.00 & 0.00 & 0.00 & -5.21 & 10.23 & 0.00 & 0.00 &0.00 \\ 
 0.00 & 0.00 & 0.00 & 0.00 & 0.00 & -3.91 & 0.00 & 0.00 & 0.00 & 0.00 & 0.00 & 8.91 & -5.00 &0.00 \\ 
 0.00 & 0.00 & 0.00 & 0.00 & 0.00 & -7.68 & 0.00 & 0.00 & 0.00 & 0.00 & 0.00 & -5.00 & 15.55 &-2.87 \\ 
 0.00 & 0.00 & 0.00 & 0.00 & 0.00 & 0.00 & 0.00 & 0.00 & -3.70 & 0.00 & 0.00 & 0.00 & -2.87 &6.57 \\ 
 16.90 & -16.90 & 0.00 & 0.00 & 0.00 & 0.00 & 0.00 & 0.00 & 0.00 & 0.00 & 0.00 & 0.00 & 0.00 &0.00 \\ 
 4.48 & 0.00 & 0.00 & 0.00 & -4.48 & 0.00 & 0.00 & 0.00 & 0.00 & 0.00 & 0.00 & 0.00 & 0.00 &0.00 \\ 
 0.00 & 5.05 & -5.05 & 0.00 & 0.00 & 0.00 & 0.00 & 0.00 & 0.00 & 0.00 & 0.00 & 0.00 & 0.00 &0.00 \\ 
 0.00 & 5.67 & 0.00 & -5.67 & 0.00 & 0.00 & 0.00 & 0.00 & 0.00 & 0.00 & 0.00 & 0.00 & 0.00 &0.00 \\ 
 0.00 & 5.75 & 0.00 & 0.00 & -5.75 & 0.00 & 0.00 & 0.00 & 0.00 & 0.00 & 0.00 & 0.00 & 0.00 &0.00 \\ 
 0.00 & 0.00 & 5.85 & -5.85 & 0.00 & 0.00 & 0.00 & 0.00 & 0.00 & 0.00 & 0.00 & 0.00 & 0.00 &0.00 \\ 
 0.00 & 0.00 & 0.00 & 23.75 & -23.75 & 0.00 & 0.00 & 0.00 & 0.00 & 0.00 & 0.00 & 0.00 & 0.00 &0.00 \\ 
 0.00 & 0.00 & 0.00 & 4.89 & 0.00 & 0.00 & -4.89 & 0.00 & 0.00 & 0.00 & 0.00 & 0.00 & 0.00 &0.00 \\ 
 0.00 & 0.00 & 0.00 & 1.86 & 0.00 & 0.00 & 0.00 & 0.00 & -1.86 & 0.00 & 0.00 & 0.00 & 0.00 &0.00 \\ 
 0.00 & 0.00 & 0.00 & 0.00 & 4.26 & -4.26 & 0.00 & 0.00 & 0.00 & 0.00 & 0.00 & 0.00 & 0.00 &0.00 \\ 
 0.00 & 0.00 & 0.00 & 0.00 & 0.00 & 5.03 & 0.00 & 0.00 & 0.00 & 0.00 & -5.03 & 0.00 & 0.00 &0.00 \\ 
 0.00 & 0.00 & 0.00 & 0.00 & 0.00 & 3.91 & 0.00 & 0.00 & 0.00 & 0.00 & 0.00 & -3.91 & 0.00 &0.00 \\ 
 0.00 & 0.00 & 0.00 & 0.00 & 0.00 & 7.68 & 0.00 & 0.00 & 0.00 & 0.00 & 0.00 & 0.00 & -7.68 &0.00 \\ 
 0.00 & 0.00 & 0.00 & 0.00 & 0.00 & 0.00 & 5.68 & -5.68 & 0.00 & 0.00 & 0.00 & 0.00 & 0.00 &0.00 \\ 
 0.00 & 0.00 & 0.00 & 0.00 & 0.00 & 0.00 & 9.09 & 0.00 & -9.09 & 0.00 & 0.00 & 0.00 & 0.00 &0.00 \\ 
 0.00 & 0.00 & 0.00 & 0.00 & 0.00 & 0.00 & 0.00 & 0.00 & 11.83 & -11.83 & 0.00 & 0.00 & 0.00 &0.00 \\ 
 0.00 & 0.00 & 0.00 & 0.00 & 0.00 & 0.00 & 0.00 & 0.00 & 3.70 & 0.00 & 0.00 & 0.00 & 0.00 &-3.70 \\ 
 0.00 & 0.00 & 0.00 & 0.00 & 0.00 & 0.00 & 0.00 & 0.00 & 0.00 & 5.21 & -5.21 & 0.00 & 0.00 &0.00 \\ 
 0.00 & 0.00 & 0.00 & 0.00 & 0.00 & 0.00 & 0.00 & 0.00 & 0.00 & 0.00 & 0.00 & 5.00 & -5.00 &0.00 \\ 
 0.00 & 0.00 & 0.00 & 0.00 & 0.00 & 0.00 & 0.00 & 0.00 & 0.00 & 0.00 & 0.00 & 0.00 & 2.87 &-2.87 \\ 
 -16.90 & 16.90 & 0.00 & 0.00 & 0.00 & 0.00 & 0.00 & 0.00 & 0.00 & 0.00 & 0.00 & 0.00 & 0.00 &0.00 \\ 
 -4.48 & 0.00 & 0.00 & 0.00 & 4.48 & 0.00 & 0.00 & 0.00 & 0.00 & 0.00 & 0.00 & 0.00 & 0.00 &0.00 \\ 
 0.00 & -5.05 & 5.05 & 0.00 & 0.00 & 0.00 & 0.00 & 0.00 & 0.00 & 0.00 & 0.00 & 0.00 & 0.00 &0.00 \\ 
 0.00 & -5.67 & 0.00 & 5.67 & 0.00 & 0.00 & 0.00 & 0.00 & 0.00 & 0.00 & 0.00 & 0.00 & 0.00 &0.00 \\ 
 0.00 & -5.75 & 0.00 & 0.00 & 5.75 & 0.00 & 0.00 & 0.00 & 0.00 & 0.00 & 0.00 & 0.00 & 0.00 &0.00 \\ 
 0.00 & 0.00 & -5.85 & 5.85 & 0.00 & 0.00 & 0.00 & 0.00 & 0.00 & 0.00 & 0.00 & 0.00 & 0.00 &0.00 \\ 
 0.00 & 0.00 & 0.00 & -23.75 & 23.75 & 0.00 & 0.00 & 0.00 & 0.00 & 0.00 & 0.00 & 0.00 & 0.00 &0.00 \\ 
 0.00 & 0.00 & 0.00 & -4.89 & 0.00 & 0.00 & 4.89 & 0.00 & 0.00 & 0.00 & 0.00 & 0.00 & 0.00 &0.00 \\ 
 0.00 & 0.00 & 0.00 & -1.86 & 0.00 & 0.00 & 0.00 & 0.00 & 1.86 & 0.00 & 0.00 & 0.00 & 0.00 &0.00 \\ 
 0.00 & 0.00 & 0.00 & 0.00 & -4.26 & 4.26 & 0.00 & 0.00 & 0.00 & 0.00 & 0.00 & 0.00 & 0.00 &0.00 \\ 
 0.00 & 0.00 & 0.00 & 0.00 & 0.00 & -5.03 & 0.00 & 0.00 & 0.00 & 0.00 & 5.03 & 0.00 & 0.00 &0.00 \\ 
 0.00 & 0.00 & 0.00 & 0.00 & 0.00 & -3.91 & 0.00 & 0.00 & 0.00 & 0.00 & 0.00 & 3.91 & 0.00 &0.00 \\ 
 0.00 & 0.00 & 0.00 & 0.00 & 0.00 & -7.68 & 0.00 & 0.00 & 0.00 & 0.00 & 0.00 & 0.00 & 7.68 &0.00 \\ 
 0.00 & 0.00 & 0.00 & 0.00 & 0.00 & 0.00 & -5.68 & 5.68 & 0.00 & 0.00 & 0.00 & 0.00 & 0.00 &0.00 \\ 
 0.00 & 0.00 & 0.00 & 0.00 & 0.00 & 0.00 & -9.09 & 0.00 & 9.09 & 0.00 & 0.00 & 0.00 & 0.00 &0.00 \\ 
 0.00 & 0.00 & 0.00 & 0.00 & 0.00 & 0.00 & 0.00 & 0.00 & -11.83 & 11.83 & 0.00 & 0.00 & 0.00 &0.00 \\ 
 0.00 & 0.00 & 0.00 & 0.00 & 0.00 & 0.00 & 0.00 & 0.00 & -3.70 & 0.00 & 0.00 & 0.00 & 0.00 &3.70 \\ 
 0.00 & 0.00 & 0.00 & 0.00 & 0.00 & 0.00 & 0.00 & 0.00 & 0.00 & -5.21 & 5.21 & 0.00 & 0.00 &0.00 \\ 
 0.00 & 0.00 & 0.00 & 0.00 & 0.00 & 0.00 & 0.00 & 0.00 & 0.00 & 0.00 & 0.00 & -5.00 & 5.00 &0.00 \\ 
 0.00 & 0.00 & 0.00 & 0.00 & 0.00 & 0.00 & 0.00 & 0.00 & 0.00 & 0.00 & 0.00 & 0.00 & -2.87 &2.87 \\ 
